{
 "allow_copy": 1,
 "autoname": "naming_series:",
 "creation": "2019-05-28 12:20:58.244647",
 "doctype": "DocType",
 "editable_grid": 1,
 "engine": "InnoDB",
 "field_order": [
  "naming_series",
  "patient",
  "customer",
  "patient_credit_balance",
  "allocate_patient_credit_balance",
  "package",
  "duration",
  "from_date",
  "to_date",
  "is_refundable",
  "refunding_percentage",
  "refunding_amount",
  "refundable_charges_income_account",
  "department",
  "income_account",
  "unavailed_package_balance_account",
  "column_break_11",
  "patient_name",
  "package_name",
  "description",
  "company",
  "currency",
  "price_list",
  "status",
  "journal_voucher_series",
  "appointment_type",
  "data_9",
  "healthcare_practitioner_level",
  "amended_from",
  "items",
  "taxes_details_section",
  "taxes_and_charges",
  "taxes",
  "section_break_28",
  "rate",
  "package_price",
  "column_break_31",
  "total_taxes_and_charges",
  "section_break_22",
  "package_advance",
  "package_payment_reference",
  "package_account_transfer_reference",
  "section_break_30",
  "paid_amount",
  "outstanding_amount",
  "column_break_32",
  "availed_amount",
  "balance_amount",
  "refunded",
  "submitted_reference",
  "initial_completed_session_jv_reference",
  "patient_credit_balance_payment",
  "adjust_outstanding_amount_jv"
 ],
 "fields": [
  {
   "fieldname": "naming_series",
   "fieldtype": "Data",
   "hidden": 1,
   "label": "Series",
   "options": "HPA-"
  },
  {
   "fieldname": "patient",
   "fieldtype": "Link",
   "in_list_view": 1,
   "label": "Patient",
   "options": "Patient",
   "reqd": 1
  },
  {
   "fetch_from": "patient.customer",
   "fieldname": "customer",
   "fieldtype": "Data",
   "label": "Customer",
   "read_only": 1
  },
  {
   "fieldname": "package",
   "fieldtype": "Link",
   "in_list_view": 1,
   "in_standard_filter": 1,
   "label": "Package",
   "options": "Healthcare Package",
   "reqd": 1
  },
  {
   "fieldname": "duration",
   "fieldtype": "Data",
   "label": "Duration(In Days)",
   "read_only": 1
  },
  {
   "default": "Today",
   "fieldname": "from_date",
   "fieldtype": "Date",
   "in_standard_filter": 1,
   "label": "From Date"
  },
  {
   "fieldname": "to_date",
   "fieldtype": "Date",
   "label": "To Date",
   "read_only": 1
  },
  {
   "default": "0",
   "fieldname": "is_refundable",
   "fieldtype": "Check",
   "label": "Is Refundable",
   "read_only": 1
  },
  {
   "depends_on": "eval:doc.is_refundable == 1",
   "fieldname": "refunding_percentage",
   "fieldtype": "Float",
   "label": "Refunding Percentage",
   "read_only": 1
  },
  {
   "depends_on": "eval:doc.is_refundable == 1",
   "fieldname": "refunding_amount",
   "fieldtype": "Currency",
   "label": "Refunding Amount",
   "read_only": 1
  },
  {
   "fieldname": "refundable_charges_income_account",
   "fieldtype": "Link",
   "label": "Refundable Charges Income Account",
   "options": "Account",
   "read_only": 1
  },
  {
   "allow_on_submit": 1,
   "fieldname": "department",
   "fieldtype": "Link",
   "in_standard_filter": 1,
   "label": "Department",
   "options": "Medical Department"
  },
  {
   "fieldname": "income_account",
   "fieldtype": "Link",
   "label": "Income Account",
   "options": "Account",
   "read_only": 1
  },
  {
   "fieldname": "unavailed_package_balance_account",
   "fieldtype": "Link",
   "label": "Unavailed Package Balance Account",
   "options": "Account"
  },
  {
   "fieldname": "column_break_11",
   "fieldtype": "Column Break"
  },
  {
   "fetch_from": "patient.patient_name",
   "fieldname": "patient_name",
   "fieldtype": "Data",
   "label": "Patient Name",
   "read_only": 1
  },
  {
   "fieldname": "package_name",
   "fieldtype": "Data",
   "label": "Package Name",
   "read_only": 1
  },
  {
   "fieldname": "description",
   "fieldtype": "Small Text",
   "label": "Description",
   "read_only": 1
  },
  {
   "fieldname": "company",
   "fieldtype": "Link",
   "label": "Company",
   "options": "Company",
   "read_only": 1
  },
  {
   "fieldname": "currency",
   "fieldtype": "Link",
   "label": "Currency",
   "options": "Currency",
   "read_only": 1
  },
  {
   "fieldname": "price_list",
   "fieldtype": "Link",
   "label": "Price_list",
   "options": "Price List",
   "read_only": 1
  },
  {
   "allow_on_submit": 1,
   "default": "Draft",
   "fieldname": "status",
   "fieldtype": "Select",
   "in_standard_filter": 1,
   "label": "Status",
   "options": "\nDraft\nSubmitted\nPaid\nCancelled\nPartial\nDiscontinued\nCompleted\nExpired\nPartial and Completed\nUnpaid and Completed",
   "read_only": 1,
   "reqd": 1
  },
  {
   "fieldname": "journal_voucher_series",
   "fieldtype": "Data",
   "label": "Journal Voucher Series",
   "read_only": 1
  },
  {
   "fieldname": "appointment_type",
   "fieldtype": "Link",
   "label": "Appointment Type",
   "options": "Appointment Type",
   "read_only": 1
  },
  {
   "fieldname": "data_9",
   "fieldtype": "Section Break",
   "label": "Items"
  },
  {
   "fieldname": "healthcare_practitioner_level",
   "fieldtype": "Link",
   "in_standard_filter": 1,
   "label": "Healthcare Practitioner Level",
   "options": "Healthcare Practitioner Level"
  },
  {
   "fieldname": "amended_from",
   "fieldtype": "Link",
   "label": "Amended From",
   "no_copy": 1,
   "options": "Healthcare Package Assignment",
   "print_hide": 1,
   "read_only": 1
  },
  {
   "fieldname": "items",
   "fieldtype": "Table",
   "label": "Items",
   "options": "Healthcare Package Item",
   "read_only": 1,
   "reqd": 1
  },
  {
   "collapsible": 1,
   "fieldname": "taxes_details_section",
   "fieldtype": "Section Break",
   "label": "Taxes Details"
  },
  {
   "fieldname": "taxes_and_charges",
   "fieldtype": "Link",
   "label": "Taxes and Charges",
   "options": "Sales Taxes and Charges Template",
   "read_only": 1
  },
  {
   "allow_on_submit": 1,
   "fieldname": "taxes",
   "fieldtype": "Table",
   "label": "Sales Taxes and Charges",
   "options": "Sales Taxes and Charges",
   "read_only": 1
  },
  {
   "fieldname": "section_break_28",
   "fieldtype": "Section Break"
  },
  {
   "fieldname": "rate",
   "fieldtype": "Currency",
   "label": "Package Price (Without tax)",
   "read_only": 1
  },
  {
   "fieldname": "package_price",
   "fieldtype": "Currency",
   "label": "Package Price",
   "read_only": 1
  },
  {
   "fieldname": "column_break_31",
   "fieldtype": "Column Break"
  },
  {
   "fieldname": "total_taxes_and_charges",
   "fieldtype": "Currency",
   "label": "Total Taxes and Charges",
   "read_only": 1
  },
  {
   "fieldname": "section_break_22",
   "fieldtype": "Section Break",
   "label": "Payments"
  },
  {
   "fieldname": "package_advance",
   "fieldtype": "Link",
   "label": "Package Advance ",
   "options": "Account",
   "read_only": 1,
   "reqd": 1
  },
  {
   "allow_on_submit": 1,
   "fieldname": "package_payment_reference",
   "fieldtype": "Table",
   "label": "Package Payment Reference",
   "no_copy": 1,
   "options": "Package Payment Reference",
   "read_only": 1
  },
  {
   "allow_on_submit": 1,
   "fieldname": "package_account_transfer_reference",
   "fieldtype": "Table",
   "hidden": 1,
   "label": "Package Account Transfer Reference",
   "no_copy": 1,
   "options": "Package Account Transfer Reference",
   "read_only": 1
  },
  {
   "fieldname": "section_break_30",
   "fieldtype": "Section Break"
  },
  {
   "allow_on_submit": 1,
   "fieldname": "paid_amount",
   "fieldtype": "Currency",
   "label": "Paid Amount",
   "no_copy": 1,
   "read_only": 1
  },
  {
   "allow_on_submit": 1,
   "fieldname": "outstanding_amount",
   "fieldtype": "Currency",
   "label": "OutStanding Amount",
   "no_copy": 1,
   "read_only": 1
  },
  {
   "fieldname": "column_break_32",
   "fieldtype": "Column Break"
  },
  {
   "allow_on_submit": 1,
   "fieldname": "availed_amount",
   "fieldtype": "Currency",
   "label": "Availed Amount",
   "read_only": 1
  },
  {
   "allow_on_submit": 1,
   "fieldname": "balance_amount",
   "fieldtype": "Currency",
   "label": "Balance Amount",
   "read_only": 1
  },
  {
   "allow_on_submit": 1,
   "default": "0",
   "fieldname": "refunded",
   "fieldtype": "Check",
   "hidden": 1,
   "label": "Refunded"
  },
  {
   "fieldname": "submitted_reference",
   "fieldtype": "Link",
   "hidden": 1,
   "label": "Submitted Reference",
   "no_copy": 1,
   "options": "Journal Entry"
  },
  {
   "fieldname": "initial_completed_session_jv_reference",
   "fieldtype": "Link",
   "hidden": 1,
   "label": "Initial Completed Session JV Reference",
   "no_copy": 1,
   "options": "Journal Entry"
  },
  {
   "depends_on": "patient",
   "fieldname": "patient_credit_balance",
   "fieldtype": "Currency",
   "label": "Patient Credit Balance",
   "read_only": 1
  },
  {
   "allow_on_submit": 1,
   "default": "0",
   "depends_on": "patient",
   "fieldname": "allocate_patient_credit_balance",
   "fieldtype": "Check",
   "hidden": 1,
   "label": "Allocate Patient Credit Balance"
  },
  {
   "fieldname": "patient_credit_balance_payment",
   "fieldtype": "Link",
   "hidden": 1,
   "label": "Patient Credit Balance Payment",
   "no_copy": 1,
   "options": "Journal Entry",
   "read_only": 1
  },
  {
   "allow_on_submit": 1,
   "fieldname": "adjust_outstanding_amount_jv",
   "fieldtype": "Link",
   "hidden": 1,
   "label": "Adjust Outstanding Amount",
   "options": "Journal Entry",
   "read_only": 1
  }
 ],
 "is_submittable": 1,
 "modified": "2020-09-22 08:12:43.332069",
 "modified_by": "Administrator",
 "module": "Sehacloud Healthcare",
 "name": "Healthcare Package Assignment",
 "owner": "Administrator",
 "permissions": [
  {
   "create": 1,
   "delete": 1,
   "email": 1,
   "export": 1,
   "print": 1,
   "read": 1,
   "report": 1,
   "role": "Healthcare Administrator",
   "set_user_permissions": 1,
   "share": 1,
   "write": 1
  }
 ],
 "search_fields": "package, package_name, patient_name",
 "sort_field": "modified",
 "sort_order": "DESC",
 "title_field": "package_name",
 "track_changes": 1,
 "track_seen": 1
}